{
    "KPlugin": {
        "Description": "Controls media players using global keyboard shortcuts",
        "Description[ar]": "يتحكم بالمشغلات الصوتية باستخدام اختصارات لوحة المفاتيح العامة",
        "Description[bg]": "Управление на медиен плеър с глобалните клавишни комбинации",
        "Description[ca@valencia]": "Controla els reproductors multimèdia utilitzant les dreceres de teclat globals",
        "Description[ca]": "Controla els reproductors multimèdia usant les dreceres de teclat globals",
        "Description[eo]": "Mastras aŭdvidaĵajn ludilojn uzante ĉieajn fulmoklavojn",
        "Description[es]": "Controla los reproductores multimedia mediante atajos de teclado globales",
        "Description[eu]": "Hedabide jotzaileak kontrolatzen ditu teklatuko lasterbide globalak erabiliz",
        "Description[fi]": "Ohjaa mediasoittimia yleispikanäppäimin",
        "Description[fr]": "Contrôle les lecteurs multimédia en utilisant les raccourcis généraux de clavier",
        "Description[gl]": "Controla reprodutores multimedia usando atallos de teclado globais.",
        "Description[he]": "שולט בנגני מדיה באמצעות קיצורי מקלדת כלליים",
        "Description[hu]": "Médialejátszók vezérlése globális billentyűparancsokkal",
        "Description[ia]": "Controla executores de media usante vias breve global de claviero",
        "Description[is]": "Stjórnar miðlaspilurum með altækum flýtilyklum",
        "Description[it]": "Controlla i lettori multimediali utilizzando le scorciatoie da tastiera globali",
        "Description[ja]": "グローバルショートカットを利用してメディアプレーヤーを制御します",
        "Description[ka]": "აკონტროლებს მედიის დამკვრელებს გლობალური კლავიატურის მალსახმობებით",
        "Description[ko]": "전역 키보드 단축키로 미디어 재생기 제어",
        "Description[lt]": "Valdo medijos leistuves naudojant visuotinius sparčiuosius klavišus",
        "Description[lv]": "Pārvalda multivides atskaņotājus, izmantojot tastatūras globālās saīsnes",
        "Description[nl]": "Bedient mediaspelers met globale sneltoetsen",
        "Description[pl]": "Steruje odtwarzaczami przy użyciu globalnych skrótów klawiszowych",
        "Description[ro]": "Controlează lectorii multimedia folosind scurtături de tastatură globale",
        "Description[ru]": "Управление медиапроигрывателем с клавиатуры",
        "Description[sa]": "वैश्विककीलफलकसंक्षिप्तमार्गाः इत्यस्य उपयोगेन मीडियाप्लेयर् नियन्त्रयति",
        "Description[sk]": "Ovládanie prehrávačov médií pomocou globálnych klávesových skratiek",
        "Description[sl]": "Nadzoruje predvajalnike medijev prek globalnih bližnjic na tipkovnici",
        "Description[ta]": "முழுதளாவிய விசைச்சுருக்குவழிகளைக் கொண்டு ஊடக இயக்கிகளைக் கட்டுப்படுத்த உதவும்",
        "Description[tr]": "Global klavye kısayollarını kullanarak ortam oynatıcılarını denetler",
        "Description[uk]": "Керування мультимедійними програвачами за допомогою загальних клавіатурних скорочень",
        "Description[x-test]": "xxControls media players using global keyboard shortcutsxx",
        "Description[zh_CN]": "使用全局键盘快捷键控制媒体播放器",
        "Description[zh_TW]": "使用全域鍵盤快捷鍵控制媒體播放器",
        "Name": "Media Controller",
        "Name[ar]": "محتكم الوسائط",
        "Name[bg]": "Медиен контролер",
        "Name[ca@valencia]": "Controlador multimèdia",
        "Name[ca]": "Controlador multimèdia",
        "Name[cs]": "Ovládání médií",
        "Name[eo]": "Stirilo por Aŭdvidaĵoj",
        "Name[es]": "Controlador multimedia",
        "Name[eu]": "Hedabide kontrolatzailea",
        "Name[fi]": "Mediasäätimet",
        "Name[fr]": "Contrôleur multimédia",
        "Name[gl]": "Controlador multimedia",
        "Name[he]": "בקר מדיה",
        "Name[hu]": "Médiavezérlő",
        "Name[ia]": "Controlos de Reproductor de Multimedia",
        "Name[is]": "Miðlastýring",
        "Name[it]": "Controllo multimediale",
        "Name[ja]": "メディアコントローラ",
        "Name[ka]": "მედიის კონტროლერი",
        "Name[ko]": "미디어 컨트롤러",
        "Name[lt]": "Medijos valdikliai",
        "Name[lv]": "Multimediju vadība",
        "Name[nl]": "Mediabediening",
        "Name[pa]": "ਮੀਡਿਆ ਕੰਟਰੋਲਰ",
        "Name[pl]": "Obsługa multimediów",
        "Name[ro]": "Controlor multimedia",
        "Name[ru]": "Управление медиапроигрывателем",
        "Name[sa]": "माध्यम नियन्त्रक",
        "Name[sk]": "Ovládač médií",
        "Name[sl]": "Nadzor medijev",
        "Name[ta]": "ஊடக கட்டுப்படுத்தி",
        "Name[tok]": "ilo kalama",
        "Name[tr]": "Ortam Denetimcisi",
        "Name[uk]": "Керування мультимедійними можливостями",
        "Name[x-test]": "xxMedia Controllerxx",
        "Name[zh_CN]": "媒体控制器",
        "Name[zh_TW]": "媒體播放器控制器"
    },
    "X-KDE-Kded-autoload": true
}
